<svg width="24" height="24" viewBox="0 0 24 24" fill="none" xmlns="http://www.w3.org/2000/svg">
<path d="M8.29492 16.59L12.8749 12L8.29492 7.41L9.70492 6L15.7049 12L9.70492 18L8.29492 16.59Z" fill="#52575C"/>
</svg>
