<svg width="23" height="26" viewBox="0 0 23 26" fill="none" xmlns="http://www.w3.org/2000/svg">
<path fill-rule="evenodd" clip-rule="evenodd" d="M1.00099 15.1445V14.8818C1.03954 14.1043 1.28872 13.351 1.72283 12.6995C2.4454 11.917 2.94004 10.958 3.15486 9.92317C3.15486 9.1234 3.15486 8.3122 3.22471 7.51243C3.58563 3.6621 7.39273 1 11.1533 1H11.2464C15.0069 1 18.814 3.6621 19.1866 7.51243C19.2565 8.3122 19.1866 9.1234 19.2448 9.92317C19.4625 10.9604 19.9567 11.9223 20.6768 12.711C21.1142 13.3566 21.3638 14.1072 21.3987 14.8818V15.1331C21.4247 16.1777 21.0649 17.1962 20.3858 18.0009C19.4883 18.9418 18.2705 19.5271 16.9629 19.6461C13.1284 20.0574 9.25964 20.0574 5.42515 19.6461C4.11897 19.522 2.90291 18.9375 2.00225 18.0009C1.3336 17.1956 0.978689 16.1831 1.00099 15.1445Z" stroke="#9A9A9B" stroke-width="2" stroke-linecap="round" stroke-linejoin="round"/>
<path d="M8.26587 23.6221C8.865 24.3741 9.74482 24.8608 10.7106 24.9744C11.6764 25.0881 12.6485 24.8193 13.4119 24.2276C13.6466 24.0526 13.8579 23.8491 14.0406 23.6221" stroke="#9A9A9B" stroke-width="2" stroke-linecap="round" stroke-linejoin="round"/>
</svg>
