<svg width="12" height="14" viewBox="0 0 12 14" fill="none" xmlns="http://www.w3.org/2000/svg">
<path fill-rule="evenodd" clip-rule="evenodd" d="M1 6.02603C1.00946 3.2408 3.27501 0.990596 6.06024 1.00003C8.84548 1.00952 11.0957 3.27507 11.0862 6.0603V6.11742C11.052 7.92791 10.041 9.60133 8.80169 10.9092C8.0929 11.6453 7.30138 12.2969 6.4429 12.8511C6.21335 13.0496 5.87287 13.0496 5.64332 12.8511C4.36354 12.0181 3.24031 10.9664 2.32503 9.74411C1.50925 8.67826 1.04608 7.38459 1 6.04317V6.02603Z" stroke="#25282B" stroke-width="1.5" stroke-linecap="round" stroke-linejoin="round"/>
<path d="M6.04331 7.73945C6.93597 7.73945 7.65962 7.01581 7.65962 6.12314C7.65962 5.23048 6.93597 4.50684 6.04331 4.50684C5.15065 4.50684 4.427 5.23048 4.427 6.12314C4.427 7.01581 5.15065 7.73945 6.04331 7.73945Z" stroke="#25282B" stroke-width="1.5" stroke-linecap="round" stroke-linejoin="round"/>
</svg>
